{
  "house": {
    "cost": [4,0,2,0],
    "sprite": "buildings/house.png",
    "passable": true,
    "range": 0
  },

  "watchtower": {
    "cost": [2,0,4,1],
    "sprite": "buildings/watchtower.png",
    "passable": true
  },

  "carpentry": {
    "cost": [2,0,2,1],
    "sprite": "buildings/carpentry.png",
    "passable": true
  },

  "mine": {
    "cost": [2,0,0],
    "sprite": "buildings/mine.png",
    "passable": true
  },

  "windmill": {
    "cost": [2,0,3],
    "sprite": "buildings/windmill.png",
    "passable": true
  },

  "wall": {
    "cost": [1,0,4],
    "sprite": "buildings/wall.png",
    "passable": false,
    "contextual": true
  },

  "armory": {
    "cost": [4,0,4,1],
    "sprite": "buildings/armory.png",
    "passable": true
  },

  "archery_range": {
    "cost": [5,0,3,1],
    "sprite": "buildings/archery_range.png",
    "passable": true
  },

  "town_center":{
    "cost": [10,10,10,5],
    "sprite": "buildings/town_center.png",
    "passable": true
  },

  "castle": {
    "cost": [0,0,0,0],
    "sprite": "buildings/castle.png",
    "passable": false,
    "contextual": false,
    "large": true
  }
}
